{
  "ignore": [
    "null",
    "createdAt",
    "updatedAt",
    "paidDate",
    "productName",
    "line3",
    "amountDue",
    "customerName",
    "number",
    "totalAmountExcludingTax",
    "discountAmount",
    "totalTaxAmount",
    "totalAmountIncludingTax",
    "status",
    "netAmount"
  ],
  "invoices": {
    "id": null,
    "invoiceNumber": "externalDocumentNumber",
    "lineItems": [
      {
        "id": null,
        "productId": "itemId",
        "description": "description",
        "quantity": "quantity",
        "unitPrice": "unitPrice",
        "totalPrice": null,
        "discountAmount": "discountAmount",
        "taxAmount": null,
        "accountName": null
      }
    ],
    "customerId": "customerId",
    "currencyCode": "USD",
    "issueDate": "invoiceDate",
    "dueDate": "dueDate",
    "address": {
      "id": null,
      "line1": "shipToAddressLine1",
      "line2": "shipToAddressLine2",
      "city": "shipToCity",
      "state": "shipToState",
      "postalCode": "shipToPostCode",
      "country": "shipToCountry"
    },
    "subTotal": null,
    "totalDiscount": null,
    "totalTaxAmount": null,
    "totalAmount": null,
    "status": null
  },
  "purchase_invoices": {
    "invoiceNumber": null,
    "lineItems": [
      {
        "productId": "itemId",
        "productName": "itemName",
        "productSku": null,
        "description": "description",
        "quantity": "quantity",
        "unitPrice": "unitCost",
        "totalPrice": null,
        "discountAmount": "discountAmount",
        "taxAmount": null,
        "taxCode": "taxCode",
        "accountName": null
      }
    ],
    "supplierNumber": "vendorNumber",
    "supplierName": "vendorName",
    "currency": "currencyCode",
    "issueDate": "invoiceDate",
    "dueDate": "dueDate",
    "paidDate": null,
    "address": {
      "id": null,
      "name": "shipToName",
      "line1": "shipToAddressLine1",
      "line2": null,
      "line3": null,
      "city": null,
      "state": null,
      "postalCode": null,
      "country": null
    },
    "subTotal": null,
    "totalDiscount": null,
    "totalTaxAmount": null,
    "totalAmount": null,
    "amountDue": null,
    "status": null,
    "createdAt": null,
    "updatedAt": null
  },
  "credit_memos": {
    "id": "id",
    "status": "status",
    "currency": "currencyCode",
    "allocatedOnDate": "creditMemoDate",
    "customerRef": {
      "customerName": "customerId",
      "addresses": [
        {
          "city": "city",
          "line1": "street",
          "state": "state",
          "country": "countryLetterCode",
          "postalCode": "postalCode"
        }
      ]
    },
    "lineItems": [
      {
        "productId": "itemId",
        "productName": "itemName",
        "discountAmount": "discountAmount",
        "unitPrice": "unitPrice",
        "quantity": "quantity"
      }
    ]
  }
}
